…
    ## Warning: There were 43 warnings in `mutate()`.
    ## The first warning was:
    ## ℹ In argument: `results = map(models, ~broom::tidy(.x, conf.int = TRUE,
    ##   exponentiate = TRUE))`.
    ## Caused by warning:
    ## ! glm.fit: fitted probabilities numerically 0 or 1 occurred
    ## ℹ Run `dplyr::last_dplyr_warnings()` to see the 42 remaining warnings.

``` r
city_results
```

    ## # A tibble: 47 × 13
    ##    city_state      data     models term   estimate std.error statistic   p.value
    ##    <fct>           <list>   <list> <chr>     <dbl>     <dbl>     <dbl>     <dbl>
    ##  1 Albuquerque, NM <tibble> <glm>  victi…    1.77      0.385  1.48     1.39 e- 1
    ##  2 Atlanta, GA     <tibble> <glm>  victi…    1.00      0.194  0.000397 1.000e+ 0
    ##  3 Baltimore, MD   <tibble> <glm>  victi…    0.426     0.138 -6.18     6.26 e-10
    ##  4 Baton Rouge, LA <tibble> <glm>  victi…    0.381     0.306 -3.15     1.65 e- 3
    ##  5 Birmingham, AL  <tibble> <glm>  victi…    0.870     0.212 -0.657    5.11 e- 1
    ##  6 Boston, MA      <tibble> <glm>  victi…    0.674     0.326 -1.21     2.26 e- 1
    ##  7 Buffalo, NY     <tibble> <glm>  victi…    0.521     0.299 -2.18     2.90 e- 2
    ##  8 Charlotte, NC   <tibble> <glm>  victi…    0.884     0.236 -0.524    6.00 e- 1
    ##  9 Chicago, IL     <tibble> <glm>  victi…    0.410     0.102 -8.77     1.86 e-18
    ## 10 Cincinnati, OH  <tibble> <glm>  victi…    0.400     0.269 -3.41     6.49 e- 4
    ## # ℹ 37 more rows
    ## # ℹ 5 more variables: conf.low <dbl>, conf.high <dbl>, OR <dbl>,
    ## #   lower_ci <dbl>, upper_ci <dbl>
…
